Category Effects in Das Gupta’s decomposition
…
We can take those individual rates, and then calculate the category effects for each group of the sub-population variables — e.g., for each \(i\) of race and \(j\) of age.

In the scenario that we have two cross-classified variables \(I\) and \(J\) and the relevant sub-population rates \(T\), dgnpop() will return three standardised rates: \(P-I\) standardised, \(P-J\) standardised, and \(P-T\) standardised.

We can see these for each sub-population (reshaped to wide):

res |>
  pivot_wider(names_from = factor, values_from = rate)

# A tibble: 44 × 7
   pop   std.set  race   age   rate race_struct age_struct
   <chr> <chr>   <int> <int>  <dbl>       <dbl>      <dbl>
 1 1985  1970        1     1 0.125       0.185      0.179 
 2 1985  1970        1     2 0.0242      0.0312     0.0299
 3 1985  1970        1     3 0.0353      0.0444     0.0375
 4 1985  1970        1     4 0.134       0.147      0.145 
 5 1985  1970        1     5 0.139       0.150      0.179 
 6 1985  1970        1     6 0.194       0.237      0.261 
 7 1985  1970        1     7 0.435       0.514      0.473 
 8 1985  1970        1     8 1.01        1.14       1.17  
 9 1985  1970        1     9 1.66        1.85       2.02  
10 1985  1970        1    10 1.98        2.19       2.45  
# ℹ 34 more rows
…
